{
  "name" : "U.S.", "layouts" : [
    {
      "modifiers" : [],
      "optional_modifiers" : [
        "NumLock", "ScrollLock"
      ],
      "entries" : {
        "0x00000001" : {"symbol" : "a"},
        "0x00000002" : {"symbol" : "b"},
        "0x00000003" : {"symbol" : "c"},
        "0x00000004" : {"symbol" : "d"},
        "0x00000005" : {"symbol" : "e"},
        "0x00000006" : {"symbol" : "f"},
        "0x00000007" : {"symbol" : "g"},
        "0x00000008" : {"symbol" : "h"},
        "0x00000009" : {"symbol" : "i"},
        "0x0000000a" : {"symbol" : "j"},
        "0x0000000b" : {"symbol" : "k"},
        "0x0000000c" : {"symbol" : "l"},
        "0x0000000d" : {"symbol" : "m"},
        "0x0000000e" : {"symbol" : "n"},
        "0x0000000f" : {"symbol" : "o"},
        "0x00000010" : {"symbol" : "p"},
        "0x00000011" : {"symbol" : "q"},
        "0x00000012" : {"symbol" : "r"},
        "0x00000013" : {"symbol" : "s"},
        "0x00000014" : {"symbol" : "t"},
        "0x00000015" : {"symbol" : "u"},
        "0x00000016" : {"symbol" : "v"},
        "0x00000017" : {"symbol" : "w"},
        "0x00000018" : {"symbol" : "x"},
        "0x00000019" : {"symbol" : "y"},
        "0x0000001a" : {"symbol" : "z"},
        "0x00000025" : {"action" : "0x00000031"}
      }
    },
    {
      "modifiers" : [],
      "optional_modifiers" : [
        "NumLock", "ScrollLock", "CapsLock"
      ],
      "entries" : {
        "0x0000001b" : {"symbol" : "1"},
        "0x0000001c" : {"symbol" : "2"},
        "0x0000001d" : {"symbol" : "3"},
        "0x0000001e" : {"symbol" : "4"},
        "0x0000001f" : {"symbol" : "5"},
        "0x00000020" : {"symbol" : "6"},
        "0x00000021" : {"symbol" : "7"},
        "0x00000022" : {"symbol" : "8"},
        "0x00000023" : {"symbol" : "9"},
        "0x00000024" : {"symbol" : "0"},
        "0x00000029" : {"symbol" : "\u0020"},
        "0x0000002a" : {"symbol" : "-"},
        "0x0000002b" : {"symbol" : "="},
        "0x0000002c" : {"symbol" : "["},
        "0x0000002d" : {"symbol" : "]"},
        "0x0000002e" : {"symbol" : "\\"},
        "0x0000002f" : {"symbol" : "#"},
        "0x00000030" : {"symbol" : ";"},
        "0x00000031" : {"symbol" : "'"},
        "0x00000032" : {"symbol" : "`"},
        "0x00000033" : {"symbol" : ","},
        "0x00000034" : {"symbol" : "."},
        "0x00000035" : {"symbol" : "/"},
        "0x00000050" : {"symbol" : "\\"}
      }
    },
    {
      "modifiers" : [
        "Shift"
      ],
      "optional_modifiers" : [
        "NumLock", "ScrollLock", "CapsLock"
      ],
      "entries" : {
        "0x00000001" : {"symbol" : "A"},
        "0x00000002" : {"symbol" : "B"},
        "0x00000003" : {"symbol" : "C"},
        "0x00000004" : {"symbol" : "D"},
        "0x00000005" : {"symbol" : "E"},
        "0x00000006" : {"symbol" : "F"},
        "0x00000007" : {"symbol" : "G"},
        "0x00000008" : {"symbol" : "H"},
        "0x00000009" : {"symbol" : "I"},
        "0x0000000a" : {"symbol" : "J"},
        "0x0000000b" : {"symbol" : "K"},
        "0x0000000c" : {"symbol" : "L"},
        "0x0000000d" : {"symbol" : "M"},
        "0x0000000e" : {"symbol" : "N"},
        "0x0000000f" : {"symbol" : "O"},
        "0x00000010" : {"symbol" : "P"},
        "0x00000011" : {"symbol" : "Q"},
        "0x00000012" : {"symbol" : "R"},
        "0x00000013" : {"symbol" : "S"},
        "0x00000014" : {"symbol" : "T"},
        "0x00000015" : {"symbol" : "U"},
        "0x00000016" : {"symbol" : "V"},
        "0x00000017" : {"symbol" : "W"},
        "0x00000018" : {"symbol" : "X"},
        "0x00000019" : {"symbol" : "Y"},
        "0x0000001a" : {"symbol" : "Z"},
        "0x0000001b" : {"symbol" : "!"},
        "0x0000001c" : {"symbol" : "@"},
        "0x0000001d" : {"symbol" : "#"},
        "0x0000001e" : {"symbol" : "$"},
        "0x0000001f" : {"symbol" : "%"},
        "0x00000020" : {"symbol" : "^"},
        "0x00000021" : {"symbol" : "&"},
        "0x00000022" : {"symbol" : "*"},
        "0x00000023" : {"symbol" : "("},
        "0x00000024" : {"symbol" : ")"},
        "0x0000002a" : {"symbol" : "_"},
        "0x0000002b" : {"symbol" : "+"},
        "0x0000002c" : {"symbol" : "{"},
        "0x0000002d" : {"symbol" : "}"},
        "0x0000002e" : {"symbol" : "|"},
        "0x0000002f" : {"symbol" : "~"},
        "0x00000030" : {"symbol" : ":"},
        "0x00000031" : {"symbol" : "\""},
        "0x00000032" : {"symbol" : "~"},
        "0x00000033" : {"symbol" : "<"},
        "0x00000034" : {"symbol" : ">"},
        "0x00000035" : {"symbol" : "?"},
        "0x00000050" : {"symbol" : "|"}
      }
    }
  ]
}
