{
  "System": [
    "sysmgr",
    "linux_guest",
    "vmm",
    "termina_guest",
    "log_listener",
    "trace",
    "account_handler_ephemeral",
    "ktrace_provider",
    "guest_discovery_service",
    "zircon_guest",
    "google_auth_provider",
    "debian_guest",
    "token_manager_factory",
    "component_manager",
    "codec_runner_sw_aac",
    "codec_runner_sw_ffmpeg",
    "codec_runner_sw_sbc",
    "account_manager",
    "account_handler",
    "virtio_balloon",
    "virtio_block",
    "virtio_console",
    "virtio_gpu",
    "virtio_input",
    "virtio_magma",
    "virtio_magma_mock_system",
    "virtual_audio_service_nodevfs",
    "virtual_audio",
    "virtio_net",
    "virtio_rng",
    "virtio_wl",
    "archivist",
    "dev_auth_provider",
    "dev_auth_provider_iotid",
    "audio_core_nodevfs",
    "bluetooth_settings",
    "camera_manager",
    "camera_manager2",
    "cobalt",
    "network_time_service",
    "timezone",
    "device_settings_manager",
    "exception_borker",
    "crashpad_agent",
    "feedback_agent",
    "fonts",
    "key_manager",
    "audio",
    "network_settings_server",
    "audio_core",
    "mediaplayer",
    "codec_factory",
    "memory_monitor",
    "battery_manager",
    "scpi",
    "simple_camera_server_cpp",
    "stash_secure",
    "stash",
    "sysmem_connector",
    "trace_manager",
    "tts_service",
    "guest_manager",
    "vulkan_loader",
    "factory_reset",
    "system_recovery",
    "mediasession",
    "tee_manager",
    "cobalt_system_metrics",
    "timekeeper",
    "thermd",
    "vsock_service",
    "system_monitor_harvester",
    "factory_store_providers",
    "amlogic_oemcrypto",
    "hwinfo",
    "widevine_cdm",
    "virtual_audio_service",
    "reference_oemcrypto"
  ],
  "Connectivity": [
    "dhcpd-cli",
    "tel_devmgr",
    "wlan_devmgr",
    "reachability",
    "netdump",
    "netemul_devmgr",
    "ril-qmi",
    "netemul_runner",
    "regulatory_region",
    "helper_netstack_cfg",
    "helper_netstack_intermediary",
    "http_client",
    "bt-avrcp",
    "bt-init",
    "netemul_sandbox",
    "netstack3",
    "enclosed_runner",
    "bt-snoop",
    "network_manager_cli",
    "bt-a2dp-sink",
    "mdns-util",
    "bt-gap",
    "netstack",
    "http",
    "fb_box_rs",
    "onet",
    "overnetstack",
    "network_manager",
    "wlanstack",
    "wlancfg",
    "dhcpd",
    "mdns",
    "telephony",
    "netcfg"
  ],
  "SWD": [
    "pkgctl",
    "pkgsvr",
    "pm",
    "amberctl",
    "omaha_client_service",
    "omaha_client_ctl",
    "pkg_cache",
    "pkg_resolver",
    "system-update-checker",
    "system_updater",
    "amber",
    "migration_service"
  ],
  "UI": [
    "present_view",
    "snapshot",
    "shortcut_manager",
    "screencap",
    "latin-ime",
    "tiles_ctl",
    "gltf_export",
    "magma-info",
    "image_grid_cpp",
    "image_grid_flutter",
    "default_hardware_ime",
    "dev_base_shell",
    "dev_session_shell",
    "dev_story_shell",
    "accessibility_settings",
    "a11y_manager",
    "display_manager",
    "set_renderer_params",
    "shadertoy_service",
    "setui_service",
    "activity",
    "brightness_manager",
    "ime_service",
    "root_presenter",
    "setui_client",
    "scenic",
    "tiles"
  ],
  "Products": [
    "ledger",
    "voila",
    "system_dashboard",
    "device_settings",
    "spinning_cube",
    "userpicker_base_shell",
    "terminal",
    "wifi_settings",
    "story_shell_labs",
    "slider_mod",
    "simple_browser",
    "auto_login_base_shell",
    "basemgr",
    "basemgr_launcher",
    "datetime_settings",
    "chromium",
    "clipboard_agent",
    "cloud_provider_firestore",
    "cloud_provider_in_memory",
    "cloud_provider_memory_diff",
    "settings",
    "cast_agent",
    "cast_auth_server",
    "discovermgr",
    "sessionctl",
    "sessionmgr",
    "display_settings",
    "ermine",
    "mondrian"
  ],
  "Tools": [
    "locate",
    "sl4f",
    "sshd-host",
    "mediasession_cli_tool",
    "minfs_fsck_target",
    "debug_agent",
    "cpuperf",
    "run",
    "catapult_converter",
    "cpuperf_provider",
    "benchmark",
    "crasher_dart",
    "goldfish_benchmark",
    "crasher_flutter",
    "stash_ctl",
    "blobfs_fsck_soft_target",
    "boot_log_checker",
    "bugreport",
    "iperf3",
    "component_index",
    "kcounter_inspect",
    "cs",
    "insntrace",
    "exception_broker",
    "odu"
  ],
  "Runners": [
    "flutter_aot_product_runner",
    "linux_runner",
    "cast_runner",
    "guest_runner",
    "dart",
    "flutter_aot_runner",
    "web_runner",
    "flutter_jit_product_runner",
    "flutter_jit_runner",
    "dart_aot_runner",
    "dart_aot_product_runner",
    "dart_jit_product_runner",
    "dart_jit_runner",
    "environment_delegating_runner",
    "cast",
    "gtest_runner"
  ],
  "Tests": [
    "some_services",
    "run_button_flutter_benchmark",
    "button_rs",
    "dart_inspect_benchmarks",
    "convergence",
    "fetch",
    "update_entry",
    "get_entry",
    "get_page",
    "put",
    "stories_simulation",
    "sync",
    "delete_entry",
    "backlog",
    "transparency_benchmark",
    "multiple_components",
    "restricted_global_data",
    "appmgr_mock_runner",
    "cobalt_fake_timekeeper",
    "device_name_provider",
    "fake_channel_writer",
    "mock_device_settings",
    "fake_component_for_runner",
    "no_ambient_executable",
    "no_ambient_executable_with_features",
    "no_ambient_executable_with_sandbox",
    "no_global_data",
    "no_hub",
    "no_isolated_temp",
    "no_persistent_storage",
    "no_services",
    "no_shell",
    "vulkan_is_supported",
    "no_shell_commands",
    "no_system_temp",
    "test_vk_validation",
    "misc",
    "playready",
    "background_view",
    "rotated_square_view",
    "widevine",
    "mock-sensor-devmgr",
    "mock_pose_buffer_provider",
    "module_with_fake_runner",
    "has_ambient_executable",
    "has_deprecated_shell",
    "has_global_data",
    "has_hub",
    "trace_stress",
    "has_hub_deprecated_shell",
    "zircon_benchmarks",
    "has_isolated_cache_storage",
    "has_isolated_persistent_storage",
    "has_isolated_temp",
    "has_shell_commands",
    "has_system_temp",
    "run_simplest_app_benchmark",
    "run_yuv_to_image_pipe_benchmark",
    "isolated_persistent_storage"
  ],
  "Examples": [
    "goodbye_dart_aot",
    "goodbye_dart_jit",
    "hello_app_dart_aot",
    "hello_app_dart_jit",
    "intl_property_manager_without_flags",
    "hello_dart_aot",
    "hello_dart_aot_product",
    "hello_dart_debug",
    "hello_dart_jit",
    "hello_dart_jit_product",
    "example_manual_relationships",
    "fibonacci_agent",
    "flutter_gallery",
    "tile_view",
    "inspect_mod",
    "inspect_vmo_example",
    "intl_property_manager",
    "intl_wisdom_client",
    "int_wisdom_server",
    "intl_wisdom_client_rust",
    "intl_wisdom_server_rust",
    "fx",
    "glob",
    "example_http_server",
    "example_player",
    "example_server",
    "eth-rs",
    "escher_waterfall",
    "echo_client",
    "echo_client_async_dart",
    "echo_client_cpp",
    "echo_client_cpp_synchronous",
    "echo_client_go",
    "echo_client_llcpp",
    "echo_client_rust",
    "echo_client_rust_synchronous",
    "echo_server",
    "echo",
    "shadertoy_client",
    "overnet_interface_passing",
    "embedder",
    "subview",
    "shapes_mod",
    "embedding_rs",
    "mind_reader_client",
    "mind_reader_server",
    "mine_digger",
    "multilevel_mod",
    "echo_server_async_dart",
    "inspect-rs",
    "echo_server_c",
    "echo_server_cpp",
    "echo_server_go",
    "echo_server_llcpp",
    "tennis_example_ai",
    "tennis_manual_player",
    "todo_list",
    "todo_list_sledge",
    "tennis_service",
    "tennis_viewer",
    "todo_cpp",
    "echo_server_rust",
    "audio_player",
    "bouncing_ball",
    "pose_buffer_presenter",
    "camera_demo",
    "use_media_decoder",
    "hello_world",
    "hello_world2",
    "crust",
    "direct_input",
    "direct_input_child",
    "drawing_mold_rs",
    "simple_sine",
    "simplest_app",
    "standalone_app",
    "simplest_embedder",
    "spinning_square_rs",
    "spinning_square_view",
    "vulkaninfo",
    "webview_mod",
    "drawing_rs",
    "driver_example_mod",
    "profiler_example",
    "vkcube_on_fb",
    "vkcube_on_scenic",
    "vkcube_skip_present",
    "vkprimer",
    "scenic_dev_app",
    "video_display",
    "speak",
    "sync_sine",
    "mediaplayer_flutter",
    "tcp_file_sender",
    "tones",
    "tz_version_parrot",
    "vp9_decoder_conformance",
    "vp9_decoder_conformance_http",
    "swap_module1",
    "swap_module2",
    "button_flutter",
    "swap_recipe",
    "tz_version_parrot_with_tzdata",
    "httpget_cpp",
    "yuv_to_image_pipe",
    "intl_wisdom_server",
    "httpget_rust"
  ]
}
